[gd_scene load_steps=4 format=2]

[ext_resource path="res://scenes/BasicHUD.gd" type="Script" id=1]
[ext_resource path="res://scenes/UI/PlayerCoin.tscn" type="PackedScene" id=2]
[ext_resource path="res://scenes/UI/PlayerCoinFont.tres" type="DynamicFont" id=3]

[node name="Control" type="Control"]
anchor_right = 1.0
anchor_bottom = 1.0
script = ExtResource( 1 )

[node name="HBoxContainer" parent="." instance=ExtResource( 2 )]
margin_right = 160.0

[node name="ColorRect" parent="HBoxContainer" index="0"]
margin_right = 70.0
color = Color( 0, 1, 0.321569, 1 )

[node name="Label" parent="HBoxContainer" index="1"]
margin_left = 74.0
margin_right = 160.0

[node name="HBoxContainer2" parent="." instance=ExtResource( 2 )]
anchor_left = 1.0
anchor_right = 1.0
margin_left = -145.0
margin_right = 0.0

[node name="ColorRect" parent="HBoxContainer2" index="0"]
margin_right = 55.0
color = Color( 0.956863, 0, 0.921569, 1 )

[node name="Label" parent="HBoxContainer2" index="1"]
margin_left = 59.0
margin_right = 145.0

[node name="Label" type="Label" parent="."]
anchor_left = 0.5
anchor_right = 0.5
margin_left = -69.0
margin_right = 69.0
margin_bottom = 35.0
custom_fonts/font = ExtResource( 3 )
text = "Time left: 202s"

[node name="AcceptDialog" type="AcceptDialog" parent="."]
visible = true
anchor_left = 0.5
anchor_top = 0.5
anchor_right = 0.5
anchor_bottom = 0.5
margin_left = -124.5
margin_top = -47.0
margin_right = 124.5
margin_bottom = 47.0
[connection signal="confirmed" from="AcceptDialog" to="." method="_on_AcceptDialog_confirmed"]

[editable path="HBoxContainer"]

[editable path="HBoxContainer2"]
