[gd_resource type="Environment" load_steps=2 format=2]

[sub_resource type="ProceduralSky" id=1]
sky_top_color = Color( 0.0627451, 0.0117647, 0.207843, 1 )
sky_horizon_color = Color( 0.580392, 0.960784, 0.92549, 1 )
ground_bottom_color = Color( 0.0627451, 0.0117647, 0.207843, 1 )
ground_horizon_color = Color( 0.521569, 0.94902, 0.909804, 1 )
ground_energy = 0.3
sun_color = Color( 0, 1, 0.905882, 1 )

[resource]
background_mode = 2
background_sky = SubResource( 1 )
glow_enabled = true
