[gd_scene load_steps=2 format=2]

[ext_resource path="res://scripts/Mainmenu.gd" type="Script" id=1]

[node name="MainMenu" type="Control"]
anchor_right = 1.0
anchor_bottom = 1.0
script = ExtResource( 1 )

[node name="VBoxContainer" type="VBoxContainer" parent="."]
anchor_left = 0.5
anchor_top = 0.5
anchor_right = 0.5
anchor_bottom = 0.5
margin_left = -20.0
margin_top = -20.0
margin_right = 20.0
margin_bottom = 20.0
grow_horizontal = 2
grow_vertical = 2

[node name="Play" type="Button" parent="VBoxContainer"]
margin_right = 63.0
margin_bottom = 20.0
text = "Play"

[node name="Options" type="Button" parent="VBoxContainer"]
margin_top = 24.0
margin_right = 63.0
margin_bottom = 44.0
text = "Options"

[node name="Credits" type="Button" parent="VBoxContainer"]
margin_top = 48.0
margin_right = 63.0
margin_bottom = 68.0
text = "Credits"

[node name="Quit" type="Button" parent="VBoxContainer"]
margin_top = 72.0
margin_right = 63.0
margin_bottom = 92.0
text = "Quit"
[connection signal="pressed" from="VBoxContainer/Play" to="." method="_on_Play_pressed"]
[connection signal="pressed" from="VBoxContainer/Options" to="." method="_on_Options_pressed"]
[connection signal="pressed" from="VBoxContainer/Credits" to="." method="_on_Credits_pressed"]
[connection signal="pressed" from="VBoxContainer/Quit" to="." method="_on_Quit_pressed"]
