<?xml version="1.0" encoding="utf-8"?>
<COLLADA xmlns="http://www.collada.org/2005/11/COLLADASchema" version="1.4.1">
<asset>
	<contributor>
		<author>Anonymous</author>
		<authoring_tool>Collada Exporter for Blender 2.6+, by Juan Linietsky (juan@codenix.com)</authoring_tool>
	</contributor>
	<created>2019-05-12T19:43:23Z</created>
	<modified>2019-05-12T19:43:23Z</modified>
	<unit meter="1.0" name="meter"/>
	<up_axis>Z_UP</up_axis>
</asset>
<library_geometries>
	<geometry id="id-mesh-2" name="Cylinder">
		<mesh>
			<source id="id-mesh-2-positions">
				<float_array id="id-mesh-2-positions-array" count="288"> 0.0 0.11999999731779099 -1.0 0.0 0.11999999731779099 1.0 0.045922014862298965 0.11086554080247879 1.0 0.045922014862298965 0.11086554080247879 -1.0 0.045922014862298965 0.11086554080247879 -1.0 0.045922014862298965 0.11086554080247879 1.0 0.08485280722379684 0.08485280722379684 1.0 0.08485280722379684 0.08485280722379684 -1.0 0.08485280722379684 0.08485280722379684 -1.0 0.08485280722379684 0.08485280722379684 1.0 0.11086554080247879 0.04592201113700867 1.0 0.11086554080247879 0.04592201113700867 -1.0 0.11086554080247879 0.04592201113700867 -1.0 0.11086554080247879 0.04592201113700867 1.0 0.11999999731779099 -5.245366363482162e-09 1.0 0.11999999731779099 -5.245366363482162e-09 -1.0 0.11999999731779099 -5.245366363482162e-09 -1.0 0.11999999731779099 -5.245366363482162e-09 1.0 0.11086554080247879 -0.04592202231287956 1.0 0.11086554080247879 -0.04592202231287956 -1.0 0.11086554080247879 -0.04592202231287956 -1.0 0.11086554080247879 -0.04592202231287956 1.0 0.08485280722379684 -0.08485280722379684 1.0 0.08485280722379684 -0.08485280722379684 -1.0 0.08485280722379684 -0.08485280722379684 -1.0 0.08485280722379684 -0.08485280722379684 1.0 0.045922018587589264 -0.11086554080247879 1.0 0.045922018587589264 -0.11086554080247879 -1.0 0.045922018587589264 -0.11086554080247879 -1.0 0.045922018587589264 -0.11086554080247879 1.0 1.8119495237556293e-08 -0.11999999731779099 1.0 1.8119495237556293e-08 -0.11999999731779099 -1.0 1.8119495237556293e-08 -0.11999999731779099 -1.0 1.8119495237556293e-08 -0.11999999731779099 1.0 -0.04592198505997658 -0.11086555570363998 1.0 -0.04592198505997658 -0.11086555570363998 -1.0 -0.04592198505997658 -0.11086555570363998 -1.0 -0.04592198505997658 -0.11086555570363998 1.0 -0.08485279232263565 -0.08485283702611923 1.0 -0.08485279232263565 -0.08485283702611923 -1.0 -0.08485279232263565 -0.08485283702611923 -1.0 -0.08485279232263565 -0.08485283702611923 1.0 -0.11086554080247879 -0.04592202976346016 1.0 -0.11086554080247879 -0.04592202976346016 -1.0 -0.11086554080247879 -0.04592202976346016 -1.0 -0.11086554080247879 -0.04592202976346016 1.0 -0.11999999731779099 1.4309856632976903e-09 1.0 -0.11999999731779099 1.4309856632976903e-09 -1.0 -0.11999999731779099 1.4309856632976903e-09 -1.0 -0.11999999731779099 1.4309856632976903e-09 1.0 -0.1108655333518982 0.04592202976346016 1.0 -0.1108655333518982 0.04592202976346016 -1.0 -0.1108655333518982 0.04592202976346016 -1.0 -0.1108655333518982 0.04592202976346016 1.0 -0.08485278487205505 0.08485283702611923 1.0 -0.08485278487205505 0.08485283702611923 -1.0 0.045922014862298965 0.11086554080247879 1.0 0.0 0.11999999731779099 1.0 -0.04592195525765419 0.11086556315422058 1.0 -0.08485278487205505 0.08485283702611923 1.0 -0.1108655333518982 0.04592202976346016 1.0 -0.11999999731779099 1.4309856632976903e-09 1.0 -0.11086554080247879 -0.04592202976346016 1.0 -0.08485279232263565 -0.08485283702611923 1.0 -0.04592198505997658 -0.11086555570363998 1.0 1.8119495237556293e-08 -0.11999999731779099 1.0 0.045922018587589264 -0.11086554080247879 1.0 0.08485280722379684 -0.08485280722379684 1.0 0.11086554080247879 -0.04592202231287956 1.0 0.11999999731779099 -5.245366363482162e-09 1.0 0.11086554080247879 0.04592201113700867 1.0 0.08485280722379684 0.08485280722379684 1.0 -0.08485278487205505 0.08485283702611923 -1.0 -0.08485278487205505 0.08485283702611923 1.0 -0.04592195525765419 0.11086556315422058 1.0 -0.04592195525765419 0.11086556315422058 -1.0 -0.04592195525765419 0.11086556315422058 -1.0 -0.04592195525765419 0.11086556315422058 1.0 0.0 0.11999999731779099 1.0 0.0 0.11999999731779099 -1.0 0.0 0.11999999731779099 -1.0 0.045922014862298965 0.11086554080247879 -1.0 0.08485280722379684 0.08485280722379684 -1.0 0.11086554080247879 0.04592201113700867 -1.0 0.11999999731779099 -5.245366363482162e-09 -1.0 0.11086554080247879 -0.04592202231287956 -1.0 0.08485280722379684 -0.08485280722379684 -1.0 0.045922018587589264 -0.11086554080247879 -1.0 1.8119495237556293e-08 -0.11999999731779099 -1.0 -0.04592198505997658 -0.11086555570363998 -1.0 -0.08485279232263565 -0.08485283702611923 -1.0 -0.11086554080247879 -0.04592202976346016 -1.0 -0.11999999731779099 1.4309856632976903e-09 -1.0 -0.1108655333518982 0.04592202976346016 -1.0 -0.08485278487205505 0.08485283702611923 -1.0 -0.04592195525765419 0.11086556315422058 -1.0</float_array>
				<technique_common>
				<accessor source="#id-mesh-2-positions-array" count="96" stride="3">
					<param name="X" type="float"/>
					<param name="Y" type="float"/>
					<param name="Z" type="float"/>
				</accessor>
				</technique_common>
			</source>
			<source id="id-mesh-2-normals">
				<float_array id="id-mesh-2-normals-array" count="288"> 0.19509032368659973 0.9807853102684021 0.0 0.19509032368659973 0.9807853102684021 0.0 0.19509032368659973 0.9807853102684021 0.0 0.19509032368659973 0.9807853102684021 0.0 0.5555703639984131 0.8314695358276367 0.0 0.5555703639984131 0.8314695358276367 0.0 0.5555703639984131 0.8314695358276367 0.0 0.5555703639984131 0.8314695358276367 0.0 0.8314695954322815 0.5555703639984131 0.0 0.8314695954322815 0.5555703639984131 0.0 0.8314695954322815 0.5555703639984131 0.0 0.8314695954322815 0.5555703639984131 0.0 0.9807853102684021 0.19509032368659973 0.0 0.9807853102684021 0.19509032368659973 0.0 0.9807853102684021 0.19509032368659973 0.0 0.9807853102684021 0.19509032368659973 0.0 0.9807851910591125 -0.19509029388427734 0.0 0.9807851910591125 -0.19509029388427734 0.0 0.9807851910591125 -0.19509029388427734 0.0 0.9807851910591125 -0.19509029388427734 0.0 0.8314694166183472 -0.5555704236030579 0.0 0.8314694166183472 -0.5555704236030579 0.0 0.8314694166183472 -0.5555704236030579 0.0 0.8314694166183472 -0.5555704236030579 0.0 0.5555703639984131 -0.8314694166183472 0.0 0.5555703639984131 -0.8314694166183472 0.0 0.5555703639984131 -0.8314694166183472 0.0 0.5555703639984131 -0.8314694166183472 0.0 0.1950903683900833 -0.9807852506637573 0.0 0.1950903683900833 -0.9807852506637573 0.0 0.1950903683900833 -0.9807852506637573 0.0 0.1950903683900833 -0.9807852506637573 0.0 -0.19509004056453705 -0.9807852506637573 0.0 -0.19509004056453705 -0.9807852506637573 0.0 -0.19509004056453705 -0.9807852506637573 0.0 -0.19509004056453705 -0.9807852506637573 0.0 -0.5555700063705444 -0.8314697742462158 0.0 -0.5555700063705444 -0.8314697742462158 0.0 -0.5555700063705444 -0.8314697742462158 0.0 -0.5555700063705444 -0.8314697742462158 0.0 -0.8314694762229919 -0.5555704236030579 0.0 -0.8314694762229919 -0.5555704236030579 0.0 -0.8314694762229919 -0.5555704236030579 0.0 -0.8314694762229919 -0.5555704236030579 0.0 -0.9807852506637573 -0.19509024918079376 0.0 -0.9807852506637573 -0.19509024918079376 0.0 -0.9807852506637573 -0.19509024918079376 0.0 -0.9807852506637573 -0.19509024918079376 0.0 -0.9807852506637573 0.1950904130935669 0.0 -0.9807852506637573 0.1950904130935669 0.0 -0.9807852506637573 0.1950904130935669 0.0 -0.9807852506637573 0.1950904130935669 0.0 -0.8314694762229919 0.5555704236030579 0.0 -0.8314694762229919 0.5555704236030579 0.0 -0.8314694762229919 0.5555704236030579 0.0 -0.8314694762229919 0.5555704236030579 0.0 -8.450220434497169e-08 0.0 1.0 -8.450220434497169e-08 0.0 1.0 -8.450220434497169e-08 0.0 1.0 -8.450220434497169e-08 0.0 1.0 -8.450220434497169e-08 0.0 1.0 -8.450220434497169e-08 0.0 1.0 -8.450220434497169e-08 0.0 1.0 -8.450220434497169e-08 0.0 1.0 -8.450220434497169e-08 0.0 1.0 -8.450220434497169e-08 0.0 1.0 -8.450220434497169e-08 0.0 1.0 -8.450220434497169e-08 0.0 1.0 -8.450220434497169e-08 0.0 1.0 -8.450220434497169e-08 0.0 1.0 -8.450220434497169e-08 0.0 1.0 -8.450220434497169e-08 0.0 1.0 -0.5555698871612549 0.8314697742462158 0.0 -0.5555698871612549 0.8314697742462158 0.0 -0.5555698871612549 0.8314697742462158 0.0 -0.5555698871612549 0.8314697742462158 0.0 -0.19509008526802063 0.9807852506637573 0.0 -0.19509008526802063 0.9807852506637573 0.0 -0.19509008526802063 0.9807852506637573 0.0 -0.19509008526802063 0.9807852506637573 0.0 -8.450219013411697e-08 0.0 -1.0 -8.450219013411697e-08 0.0 -1.0 -8.450219013411697e-08 0.0 -1.0 -8.450219013411697e-08 0.0 -1.0 -8.450219013411697e-08 0.0 -1.0 -8.450219013411697e-08 0.0 -1.0 -8.450219013411697e-08 0.0 -1.0 -8.450219013411697e-08 0.0 -1.0 -8.450219013411697e-08 0.0 -1.0 -8.450219013411697e-08 0.0 -1.0 -8.450219013411697e-08 0.0 -1.0 -8.450219013411697e-08 0.0 -1.0 -8.450219013411697e-08 0.0 -1.0 -8.450219013411697e-08 0.0 -1.0 -8.450219013411697e-08 0.0 -1.0 -8.450219013411697e-08 0.0 -1.0</float_array>
				<technique_common>
				<accessor source="#id-mesh-2-normals-array" count="96" stride="3">
					<param name="X" type="float"/>
					<param name="Y" type="float"/>
					<param name="Z" type="float"/>
				</accessor>
				</technique_common>
			</source>
			<vertices id="id-mesh-2-vertices">
				<input semantic="POSITION" source="#id-mesh-2-positions"/>
			</vertices>
			<polygons count="18">
				<input semantic="VERTEX" source="#id-mesh-2-vertices" offset="0"/>
				<input semantic="NORMAL" source="#id-mesh-2-normals" offset="0"/>
				<p> 0 1 2 3 </p>
				<p> 4 5 6 7 </p>
				<p> 8 9 10 11 </p>
				<p> 12 13 14 15 </p>
				<p> 16 17 18 19 </p>
				<p> 20 21 22 23 </p>
				<p> 24 25 26 27 </p>
				<p> 28 29 30 31 </p>
				<p> 32 33 34 35 </p>
				<p> 36 37 38 39 </p>
				<p> 40 41 42 43 </p>
				<p> 44 45 46 47 </p>
				<p> 48 49 50 51 </p>
				<p> 52 53 54 55 </p>
				<p> 56 57 58 59 60 61 62 63 64 65 66 67 68 69 70 71 </p>
				<p> 72 73 74 75 </p>
				<p> 76 77 78 79 </p>
				<p> 80 81 82 83 84 85 86 87 88 89 90 91 92 93 94 95 </p>
			</polygons>
		</mesh>
	</geometry>
	<geometry id="id-mesh-3" name="Cylinder.001">
		<mesh>
			<source id="id-mesh-3-positions">
				<float_array id="id-mesh-3-positions-array" count="288"> -3.3808582600158843e-09 0.23616543412208557 -0.061360836029052734 -3.3808582600158843e-09 0.23616543412208557 0.061360836029052734 0.0903766006231308 0.21818840503692627 0.061360836029052734 0.0903766006231308 0.21818840503692627 -0.061360836029052734 0.0903766006231308 0.21818840503692627 -0.061360836029052734 0.0903766006231308 0.21818840503692627 0.061360836029052734 0.16699416935443878 0.16699416935443878 0.061360836029052734 0.16699416935443878 0.16699416935443878 -0.061360836029052734 0.16699416935443878 0.16699416935443878 -0.061360836029052734 0.16699416935443878 0.16699416935443878 0.061360836029052734 0.21818840503692627 0.0903766006231308 0.061360836029052734 0.21818840503692627 0.0903766006231308 -0.061360836029052734 0.21818840503692627 0.0903766006231308 -0.061360836029052734 0.21818840503692627 0.0903766006231308 0.061360836029052734 0.23616543412208557 -1.1224681628618782e-08 0.061360836029052734 0.23616543412208557 -1.1224681628618782e-08 -0.061360836029052734 0.23616543412208557 -1.1224681628618782e-08 -0.061360836029052734 0.23616543412208557 -1.1224681628618782e-08 0.061360836029052734 0.21818840503692627 -0.09037662297487259 0.061360836029052734 0.21818840503692627 -0.09037662297487259 -0.061360836029052734 0.21818840503692627 -0.09037662297487259 -0.061360836029052734 0.21818840503692627 -0.09037662297487259 0.061360836029052734 0.16699416935443878 -0.16699416935443878 0.061360836029052734 0.16699416935443878 -0.16699416935443878 -0.061360836029052734 0.16699416935443878 -0.16699416935443878 -0.061360836029052734 0.16699416935443878 -0.16699416935443878 0.061360836029052734 0.0903766080737114 -0.21818840503692627 0.061360836029052734 0.0903766080737114 -0.21818840503692627 -0.061360836029052734 0.0903766080737114 -0.21818840503692627 -0.061360836029052734 0.0903766080737114 -0.21818840503692627 0.061360836029052734 3.227912870329419e-08 -0.23616543412208557 0.061360836029052734 3.227912870329419e-08 -0.23616543412208557 -0.061360836029052734 3.227912870329419e-08 -0.23616543412208557 -0.061360836029052734 3.227912870329419e-08 -0.23616543412208557 0.061360836029052734 -0.09037655591964722 -0.21818843483924866 0.061360836029052734 -0.09037655591964722 -0.21818843483924866 -0.061360836029052734 -0.09037655591964722 -0.21818843483924866 -0.061360836029052734 -0.09037655591964722 -0.21818843483924866 0.061360836029052734 -0.1669941395521164 -0.16699422895908356 0.061360836029052734 -0.1669941395521164 -0.16699422895908356 -0.061360836029052734 -0.1669941395521164 -0.16699422895908356 -0.061360836029052734 -0.1669941395521164 -0.16699422895908356 0.061360836029052734 -0.21818840503692627 -0.09037663787603378 0.061360836029052734 -0.21818840503692627 -0.09037663787603378 -0.061360836029052734 -0.21818840503692627 -0.09037663787603378 -0.061360836029052734 -0.21818840503692627 -0.09037663787603378 0.061360836029052734 -0.23616543412208557 1.914682190573558e-09 0.061360836029052734 -0.23616543412208557 1.914682190573558e-09 -0.061360836029052734 -0.23616543412208557 1.914682190573558e-09 -0.061360836029052734 -0.23616543412208557 1.914682190573558e-09 0.061360836029052734 -0.21818840503692627 0.09037663787603378 0.061360836029052734 -0.21818840503692627 0.09037663787603378 -0.061360836029052734 -0.21818840503692627 0.09037663787603378 -0.061360836029052734 -0.21818840503692627 0.09037663787603378 0.061360836029052734 -0.1669941246509552 0.16699422895908356 0.061360836029052734 -0.1669941246509552 0.16699422895908356 -0.061360836029052734 0.0903766006231308 0.21818840503692627 0.061360836029052734 -3.3808582600158843e-09 0.23616543412208557 0.061360836029052734 -0.09037649631500244 0.21818844974040985 0.061360836029052734 -0.1669941246509552 0.16699422895908356 0.061360836029052734 -0.21818840503692627 0.09037663787603378 0.061360836029052734 -0.23616543412208557 1.914682190573558e-09 0.061360836029052734 -0.21818840503692627 -0.09037663787603378 0.061360836029052734 -0.1669941395521164 -0.16699422895908356 0.061360836029052734 -0.09037655591964722 -0.21818843483924866 0.061360836029052734 3.227912870329419e-08 -0.23616543412208557 0.061360836029052734 0.0903766080737114 -0.21818840503692627 0.061360836029052734 0.16699416935443878 -0.16699416935443878 0.061360836029052734 0.21818840503692627 -0.09037662297487259 0.061360836029052734 0.23616543412208557 -1.1224681628618782e-08 0.061360836029052734 0.21818840503692627 0.0903766006231308 0.061360836029052734 0.16699416935443878 0.16699416935443878 0.061360836029052734 -0.1669941246509552 0.16699422895908356 -0.061360836029052734 -0.1669941246509552 0.16699422895908356 0.061360836029052734 -0.09037649631500244 0.21818844974040985 0.061360836029052734 -0.09037649631500244 0.21818844974040985 -0.061360836029052734 -0.09037649631500244 0.21818844974040985 -0.061360836029052734 -0.09037649631500244 0.21818844974040985 0.061360836029052734 -3.3808582600158843e-09 0.23616543412208557 0.061360836029052734 -3.3808582600158843e-09 0.23616543412208557 -0.061360836029052734 -3.3808582600158843e-09 0.23616543412208557 -0.061360836029052734 0.0903766006231308 0.21818840503692627 -0.061360836029052734 0.16699416935443878 0.16699416935443878 -0.061360836029052734 0.21818840503692627 0.0903766006231308 -0.061360836029052734 0.23616543412208557 -1.1224681628618782e-08 -0.061360836029052734 0.21818840503692627 -0.09037662297487259 -0.061360836029052734 0.16699416935443878 -0.16699416935443878 -0.061360836029052734 0.0903766080737114 -0.21818840503692627 -0.061360836029052734 3.227912870329419e-08 -0.23616543412208557 -0.061360836029052734 -0.09037655591964722 -0.21818843483924866 -0.061360836029052734 -0.1669941395521164 -0.16699422895908356 -0.061360836029052734 -0.21818840503692627 -0.09037663787603378 -0.061360836029052734 -0.23616543412208557 1.914682190573558e-09 -0.061360836029052734 -0.21818840503692627 0.09037663787603378 -0.061360836029052734 -0.1669941246509552 0.16699422895908356 -0.061360836029052734 -0.09037649631500244 0.21818844974040985 -0.061360836029052734</float_array>
				<technique_common>
				<accessor source="#id-mesh-3-positions-array" count="96" stride="3">
					<param name="X" type="float"/>
					<param name="Y" type="float"/>
					<param name="Z" type="float"/>
				</accessor>
				</technique_common>
			</source>
			<source id="id-mesh-3-normals">
				<float_array id="id-mesh-3-normals-array" count="288"> 0.1950903981924057 0.9807853102684021 0.0 0.1950903981924057 0.9807853102684021 0.0 0.1950903981924057 0.9807853102684021 0.0 0.1950903981924057 0.9807853102684021 0.0 0.5555703639984131 0.8314695954322815 0.0 0.5555703639984131 0.8314695954322815 0.0 0.5555703639984131 0.8314695954322815 0.0 0.5555703639984131 0.8314695954322815 0.0 0.8314695358276367 0.5555703639984131 0.0 0.8314695358276367 0.5555703639984131 0.0 0.8314695358276367 0.5555703639984131 0.0 0.8314695358276367 0.5555703639984131 0.0 0.9807852506637573 0.19509033858776093 0.0 0.9807852506637573 0.19509033858776093 0.0 0.9807852506637573 0.19509033858776093 0.0 0.9807852506637573 0.19509033858776093 0.0 0.9807853102684021 -0.1950903683900833 0.0 0.9807853102684021 -0.1950903683900833 0.0 0.9807853102684021 -0.1950903683900833 0.0 0.9807853102684021 -0.1950903683900833 0.0 0.8314694166183472 -0.5555704236030579 0.0 0.8314694166183472 -0.5555704236030579 0.0 0.8314694166183472 -0.5555704236030579 0.0 0.8314694166183472 -0.5555704236030579 0.0 0.5555703639984131 -0.8314695358276367 0.0 0.5555703639984131 -0.8314695358276367 0.0 0.5555703639984131 -0.8314695358276367 0.0 0.5555703639984131 -0.8314695358276367 0.0 0.19509044289588928 -0.9807852506637573 0.0 0.19509044289588928 -0.9807852506637573 0.0 0.19509044289588928 -0.9807852506637573 0.0 0.19509044289588928 -0.9807852506637573 0.0 -0.19509011507034302 -0.9807853698730469 0.0 -0.19509011507034302 -0.9807853698730469 0.0 -0.19509011507034302 -0.9807853698730469 0.0 -0.19509011507034302 -0.9807853698730469 0.0 -0.555570125579834 -0.8314697742462158 0.0 -0.555570125579834 -0.8314697742462158 0.0 -0.555570125579834 -0.8314697742462158 0.0 -0.555570125579834 -0.8314697742462158 0.0 -0.8314694166183472 -0.5555704236030579 0.0 -0.8314694166183472 -0.5555704236030579 0.0 -0.8314694166183472 -0.5555704236030579 0.0 -0.8314694166183472 -0.5555704236030579 0.0 -0.9807853102684021 -0.19509029388427734 0.0 -0.9807853102684021 -0.19509029388427734 0.0 -0.9807853102684021 -0.19509029388427734 0.0 -0.9807853102684021 -0.19509029388427734 0.0 -0.9807853102684021 0.19509029388427734 0.0 -0.9807853102684021 0.19509029388427734 0.0 -0.9807853102684021 0.19509029388427734 0.0 -0.9807853102684021 0.19509029388427734 0.0 -0.8314694166183472 0.5555706024169922 0.0 -0.8314694166183472 0.5555706024169922 0.0 -0.8314694166183472 0.5555706024169922 0.0 -0.8314694166183472 0.5555706024169922 0.0 0.0 0.0 0.9999999403953552 0.0 0.0 0.9999999403953552 0.0 0.0 0.9999999403953552 0.0 0.0 0.9999999403953552 0.0 0.0 0.9999999403953552 0.0 0.0 0.9999999403953552 0.0 0.0 0.9999999403953552 0.0 0.0 0.9999999403953552 0.0 0.0 0.9999999403953552 0.0 0.0 0.9999999403953552 0.0 0.0 0.9999999403953552 0.0 0.0 0.9999999403953552 0.0 0.0 0.9999999403953552 0.0 0.0 0.9999999403953552 0.0 0.0 0.9999999403953552 0.0 0.0 0.9999999403953552 -0.5555698871612549 0.8314697742462158 0.0 -0.5555698871612549 0.8314697742462158 0.0 -0.5555698871612549 0.8314697742462158 0.0 -0.5555698871612549 0.8314697742462158 0.0 -0.1950901299715042 0.9807853102684021 0.0 -0.1950901299715042 0.9807853102684021 0.0 -0.1950901299715042 0.9807853102684021 0.0 -0.1950901299715042 0.9807853102684021 0.0 1.227214152521583e-08 0.0 -0.9999999403953552 1.227214152521583e-08 0.0 -0.9999999403953552 1.227214152521583e-08 0.0 -0.9999999403953552 1.227214152521583e-08 0.0 -0.9999999403953552 1.227214152521583e-08 0.0 -0.9999999403953552 1.227214152521583e-08 0.0 -0.9999999403953552 1.227214152521583e-08 0.0 -0.9999999403953552 1.227214152521583e-08 0.0 -0.9999999403953552 1.227214152521583e-08 0.0 -0.9999999403953552 1.227214152521583e-08 0.0 -0.9999999403953552 1.227214152521583e-08 0.0 -0.9999999403953552 1.227214152521583e-08 0.0 -0.9999999403953552 1.227214152521583e-08 0.0 -0.9999999403953552 1.227214152521583e-08 0.0 -0.9999999403953552 1.227214152521583e-08 0.0 -0.9999999403953552 1.227214152521583e-08 0.0 -0.9999999403953552</float_array>
				<technique_common>
				<accessor source="#id-mesh-3-normals-array" count="96" stride="3">
					<param name="X" type="float"/>
					<param name="Y" type="float"/>
					<param name="Z" type="float"/>
				</accessor>
				</technique_common>
			</source>
			<vertices id="id-mesh-3-vertices">
				<input semantic="POSITION" source="#id-mesh-3-positions"/>
			</vertices>
			<polygons count="18">
				<input semantic="VERTEX" source="#id-mesh-3-vertices" offset="0"/>
				<input semantic="NORMAL" source="#id-mesh-3-normals" offset="0"/>
				<p> 0 1 2 3 </p>
				<p> 4 5 6 7 </p>
				<p> 8 9 10 11 </p>
				<p> 12 13 14 15 </p>
				<p> 16 17 18 19 </p>
				<p> 20 21 22 23 </p>
				<p> 24 25 26 27 </p>
				<p> 28 29 30 31 </p>
				<p> 32 33 34 35 </p>
				<p> 36 37 38 39 </p>
				<p> 40 41 42 43 </p>
				<p> 44 45 46 47 </p>
				<p> 48 49 50 51 </p>
				<p> 52 53 54 55 </p>
				<p> 56 57 58 59 60 61 62 63 64 65 66 67 68 69 70 71 </p>
				<p> 72 73 74 75 </p>
				<p> 76 77 78 79 </p>
				<p> 80 81 82 83 84 85 86 87 88 89 90 91 92 93 94 95 </p>
			</polygons>
		</mesh>
	</geometry>
</library_geometries>
<library_visual_scenes>
	<visual_scene id="id-scene-1" name="scene">
		<node id="Cylinder" name="Cylinder" type="NODE">
			<matrix sid="transform"> 1.0 0.0 0.0 0.0 0.0 1.0 0.0 0.0 0.0 0.0 1.0 0.0 0.0 0.0 0.0 1.0  </matrix>
			<instance_geometry url="#id-mesh-2">
			</instance_geometry>
		</node>
		<node id="Cylinder.001" name="Cylinder.001" type="NODE">
			<matrix sid="transform"> 1.0 0.0 0.0 0.0 0.0 1.0 0.0 0.0 0.0 0.0 1.0 0.9504190683364868 0.0 0.0 0.0 1.0  </matrix>
			<instance_geometry url="#id-mesh-3">
			</instance_geometry>
		</node>
	</visual_scene>
</library_visual_scenes>
<library_animations>
	<animation id="id-anim-4">
		<source id="id-anim-4-input">
			<float_array id="id-anim-4-input-array" count="20"> 0.0 0.041666666666666664 0.08333333333333334 0.125 0.16666666666666666 0.20833333333333334 0.24999999999999997 0.29166666666666663 0.3333333333333333 0.37499999999999994 0.41666666666666663 0.4583333333333333 0.49999999999999994 0.5416666666666666 0.5833333333333334 0.625 0.6666666666666666 0.7083333333333334 0.75 0.7916666666666666</float_array>
			<technique_common>
				<accessor source="#id-anim-4-input-array" count="20" stride="1">
					<param name="TIME" type="float"/>
				</accessor>
			</technique_common>
		</source>
		<source id="id-anim-4-transform-output">
			<float_array id="id-anim-4-transform-output-array" count="320">  1.0 0.0 0.0 0.0 0.0 1.0 0.0 0.0 0.0 0.0 1.0 -0.9402540922164917 0.0 0.0 0.0 1.0    1.0 0.0 0.0 0.0 0.0 1.0 0.0 0.0 0.0 0.0 1.0 -0.925093412399292 0.0 0.0 0.0 1.0    1.0 0.0 0.0 0.0 0.0 1.0 0.0 0.0 0.0 0.0 1.0 -0.8818166255950928 0.0 0.0 0.0 1.0    1.0 0.0 0.0 0.0 0.0 1.0 0.0 0.0 0.0 0.0 1.0 -0.8137313723564148 0.0 0.0 0.0 1.0    1.0 0.0 0.0 0.0 0.0 1.0 0.0 0.0 0.0 0.0 1.0 -0.7241456508636475 0.0 0.0 0.0 1.0    1.0 0.0 0.0 0.0 0.0 1.0 0.0 0.0 0.0 0.0 1.0 -0.6163671016693115 0.0 0.0 0.0 1.0    1.0 0.0 0.0 0.0 0.0 1.0 0.0 0.0 0.0 0.0 1.0 -0.4937034845352173 0.0 0.0 0.0 1.0    1.0 0.0 0.0 0.0 0.0 1.0 0.0 0.0 0.0 0.0 1.0 -0.35946258902549744 0.0 0.0 0.0 1.0    1.0 0.0 0.0 0.0 0.0 1.0 0.0 0.0 0.0 0.0 1.0 -0.2169523537158966 0.0 0.0 0.0 1.0    1.0 0.0 0.0 0.0 0.0 1.0 0.0 0.0 0.0 0.0 1.0 -0.06948044896125793 0.0 0.0 0.0 1.0    1.0 0.0 0.0 0.0 0.0 1.0 0.0 0.0 0.0 0.0 1.0 0.07964539527893066 0.0 0.0 0.0 1.0    1.0 0.0 0.0 0.0 0.0 1.0 0.0 0.0 0.0 0.0 1.0 0.22711753845214844 0.0 0.0 0.0 1.0    1.0 0.0 0.0 0.0 0.0 1.0 0.0 0.0 0.0 0.0 1.0 0.3696276545524597 0.0 0.0 0.0 1.0    1.0 0.0 0.0 0.0 0.0 1.0 0.0 0.0 0.0 0.0 1.0 0.503868579864502 0.0 0.0 0.0 1.0    1.0 0.0 0.0 0.0 0.0 1.0 0.0 0.0 0.0 0.0 1.0 0.6265323162078857 0.0 0.0 0.0 1.0    1.0 0.0 0.0 0.0 0.0 1.0 0.0 0.0 0.0 0.0 1.0 0.7343106269836426 0.0 0.0 0.0 1.0    1.0 0.0 0.0 0.0 0.0 1.0 0.0 0.0 0.0 0.0 1.0 0.8238961696624756 0.0 0.0 0.0 1.0    1.0 0.0 0.0 0.0 0.0 1.0 0.0 0.0 0.0 0.0 1.0 0.8919816017150879 0.0 0.0 0.0 1.0    1.0 0.0 0.0 0.0 0.0 1.0 0.0 0.0 0.0 0.0 1.0 0.935258150100708 0.0 0.0 0.0 1.0    1.0 0.0 0.0 0.0 0.0 1.0 0.0 0.0 0.0 0.0 1.0 0.9504190683364868 0.0 0.0 0.0 1.0  </float_array>
			<technique_common>
				<accessor source="#id-anim-4-transform-output-array" count="20" stride="16">
					<param name="TRANSFORM" type="float4x4"/>
				</accessor>
			</technique_common>
		</source>
		<source id="id-anim-4-interpolation-output">
			<Name_array id="id-anim-4-interpolation-output-array" count="20"> LINEAR LINEAR LINEAR LINEAR LINEAR LINEAR LINEAR LINEAR LINEAR LINEAR LINEAR LINEAR LINEAR LINEAR LINEAR LINEAR LINEAR LINEAR LINEAR LINEAR</Name_array>
			<technique_common>
				<accessor source="#id-anim-4-interpolation-output-array" count="20" stride="1">
					<param name="INTERPOLATION" type="Name"/>
				</accessor>
			</technique_common>
		</source>
		<sampler id="id-anim-4-sampler">
			<input semantic="INPUT" source="#id-anim-4-input"/>
			<input semantic="OUTPUT" source="#id-anim-4-transform-output"/>
			<input semantic="INTERPOLATION" source="#id-anim-4-interpolation-output"/>
		</sampler>
		<channel source="#id-anim-4-sampler" target="Cylinder.001/transform"/>
	</animation>
</library_animations>
<scene>
	<instance_visual_scene url="#id-scene-1" />
</scene>
</COLLADA>
